{
  "aspectWidth": 16,
  "aspectHeight": 9,
  "enableKeyboardZoom": true,
  "enableKeyboardRotation": true,
  "enableKeyboardNavigation": true,
  "enableMouseTranslation": true,
  "enableMouseZoom": true,
  "enableMouseRotation": true,
  "enableMouseNavigation": true,
  "updateURLOnFrameChange": true,
  "frames": [
    {
      "frameId": "frame1619",
      "title": "Wide frame 1",
      "titleLevel": 0,
      "notes": "",
      "timeoutMs": 0,
      "timeoutEnable": false,
      "transitionDurationMs": 1000,
      "showInFrameList": true,
      "showFrameNumber": true,
      "layerProperties": {
        "layer2": {
          "link": false,
          "referenceElementId": "",
          "outlineElementId": "",
          "transitionTimingFunction": "linear",
          "transitionRelativeZoom": 0,
          "transitionPathId": ""
        },
        "layer1": {
          "link": false,
          "referenceElementId": "path10831",
          "outlineElementId": "",
          "transitionTimingFunction": "linear",
          "transitionRelativeZoom": 0,
          "transitionPathId": ""
        },
        "__sozi_auto__": {
          "link": false,
          "referenceElementId": "",
          "outlineElementId": "",
          "transitionTimingFunction": "linear",
          "transitionRelativeZoom": 0,
          "transitionPathId": ""
        }
      },
      "cameraStates": {
        "layer2": {
          "cx": 2747.333267211914,
          "cy": 1650.0000775040535,
          "width": 5854.54052734375,
          "height": 3300,
          "opacity": 1,
          "angle": 0,
          "clipped": false,
          "clipXOffset": 0,
          "clipYOffset": 0,
          "clipWidthFactor": 1,
          "clipHeightFactor": 1
        },
        "layer1": {
          "cx": 2747.333267211914,
          "cy": 1650.0000775040535,
          "width": 5854.54052734375,
          "height": 3300,
          "opacity": 1,
          "angle": 0,
          "clipped": false,
          "clipXOffset": 0,
          "clipYOffset": 0,
          "clipWidthFactor": 1,
          "clipHeightFactor": 1
        },
        "__sozi_auto__": {
          "cx": 2747.333267211914,
          "cy": 1650.0000775040535,
          "width": 5854.54052734375,
          "height": 3300,
          "opacity": 1,
          "angle": 0,
          "clipped": false,
          "clipXOffset": 0,
          "clipYOffset": 0,
          "clipWidthFactor": 1,
          "clipHeightFactor": 1
        }
      },
      "cameraOffsets": {
        "layer1": {
          "deltaX": 0.0000152587890625,
          "deltaY": -0.00016663657152093947,
          "widthFactor": 0.9999999975931406,
          "heightFactor": 1.0000000283159907,
          "deltaAngle": 0
        }
      }
    },
    {
      "frameId": "frame3162",
      "title": "Start frame 2",
      "titleLevel": 0,
      "notes": "",
      "timeoutMs": 0,
      "timeoutEnable": false,
      "transitionDurationMs": 1000,
      "showInFrameList": true,
      "showFrameNumber": true,
      "layerProperties": {
        "layer2": {
          "link": false,
          "referenceElementId": "",
          "outlineElementId": "rect23647",
          "transitionTimingFunction": "linear",
          "transitionRelativeZoom": 0,
          "transitionPathId": ""
        },
        "layer1": {
          "link": false,
          "referenceElementId": "rect23647",
          "outlineElementId": "rect23647",
          "transitionTimingFunction": "linear",
          "transitionRelativeZoom": 0,
          "transitionPathId": ""
        },
        "__sozi_auto__": {
          "link": false,
          "referenceElementId": "",
          "outlineElementId": "rect23647",
          "transitionTimingFunction": "linear",
          "transitionRelativeZoom": 0,
          "transitionPathId": ""
        }
      },
      "cameraStates": {
        "layer2": {
          "cx": 2355.8681640625,
          "cy": 984.9988403320312,
          "width": 319.9999084472656,
          "height": 179.9999542236328,
          "opacity": 1,
          "angle": 0,
          "clipped": false,
          "clipXOffset": 0,
          "clipYOffset": 0,
          "clipWidthFactor": 1,
          "clipHeightFactor": 1
        },
        "layer1": {
          "cx": 2355.8681640625,
          "cy": 984.9988403320312,
          "width": 319.9999084472656,
          "height": 179.9999542236328,
          "opacity": 1,
          "angle": 0,
          "clipped": false,
          "clipXOffset": 0,
          "clipYOffset": 0,
          "clipWidthFactor": 1,
          "clipHeightFactor": 1
        },
        "__sozi_auto__": {
          "cx": 2355.8681640625,
          "cy": 984.9988403320312,
          "width": 319.9999084472656,
          "height": 179.9999542236328,
          "opacity": 1,
          "angle": 0,
          "clipped": false,
          "clipXOffset": 0,
          "clipYOffset": 0,
          "clipWidthFactor": 1,
          "clipHeightFactor": 1
        }
      },
      "cameraOffsets": {
        "layer1": {
          "deltaX": 0,
          "deltaY": 0,
          "widthFactor": 1,
          "heightFactor": 1,
          "deltaAngle": 0
        }
      }
    },
    {
      "frameId": "frame7921",
      "title": "frame 3",
      "titleLevel": 0,
      "notes": "",
      "timeoutMs": 0,
      "timeoutEnable": false,
      "transitionDurationMs": 1000,
      "showInFrameList": true,
      "showFrameNumber": true,
      "layerProperties": {
        "layer2": {
          "link": false,
          "referenceElementId": "",
          "outlineElementId": "rect16733",
          "transitionTimingFunction": "linear",
          "transitionRelativeZoom": 0,
          "transitionPathId": ""
        },
        "layer1": {
          "link": false,
          "referenceElementId": "rect16733",
          "outlineElementId": "rect16733",
          "transitionTimingFunction": "linear",
          "transitionRelativeZoom": 0,
          "transitionPathId": ""
        },
        "__sozi_auto__": {
          "link": false,
          "referenceElementId": "",
          "outlineElementId": "rect16733",
          "transitionTimingFunction": "linear",
          "transitionRelativeZoom": 0,
          "transitionPathId": ""
        }
      },
      "cameraStates": {
        "layer2": {
          "cx": 2684.090576171875,
          "cy": 1239.0560302734375,
          "width": 320,
          "height": 180,
          "opacity": 1,
          "angle": 0,
          "clipped": false,
          "clipXOffset": 0,
          "clipYOffset": 0,
          "clipWidthFactor": 1,
          "clipHeightFactor": 1
        },
        "layer1": {
          "cx": 2684.090576171875,
          "cy": 1239.0560302734375,
          "width": 320,
          "height": 180,
          "opacity": 1,
          "angle": 0,
          "clipped": false,
          "clipXOffset": 0,
          "clipYOffset": 0,
          "clipWidthFactor": 1,
          "clipHeightFactor": 1
        },
        "__sozi_auto__": {
          "cx": 2684.090576171875,
          "cy": 1239.0560302734375,
          "width": 320,
          "height": 180,
          "opacity": 1,
          "angle": 0,
          "clipped": false,
          "clipXOffset": 0,
          "clipYOffset": 0,
          "clipWidthFactor": 1,
          "clipHeightFactor": 1
        }
      },
      "cameraOffsets": {
        "layer1": {
          "deltaX": 0,
          "deltaY": 0,
          "widthFactor": 1,
          "heightFactor": 1,
          "deltaAngle": 0
        }
      }
    },
    {
      "frameId": "frame3885",
      "title": "frame 4",
      "titleLevel": 0,
      "notes": "",
      "timeoutMs": 0,
      "timeoutEnable": false,
      "transitionDurationMs": 1000,
      "showInFrameList": true,
      "showFrameNumber": true,
      "layerProperties": {
        "layer2": {
          "link": false,
          "referenceElementId": "",
          "outlineElementId": "rect16679",
          "transitionTimingFunction": "linear",
          "transitionRelativeZoom": 0,
          "transitionPathId": ""
        },
        "layer1": {
          "link": false,
          "referenceElementId": "rect16679",
          "outlineElementId": "rect16679",
          "transitionTimingFunction": "linear",
          "transitionRelativeZoom": 0,
          "transitionPathId": ""
        },
        "__sozi_auto__": {
          "link": false,
          "referenceElementId": "",
          "outlineElementId": "rect16679",
          "transitionTimingFunction": "linear",
          "transitionRelativeZoom": 0,
          "transitionPathId": ""
        }
      },
      "cameraStates": {
        "layer2": {
          "cx": 2933.934326171875,
          "cy": 801.3394165039062,
          "width": 320,
          "height": 180,
          "opacity": 1,
          "angle": 0,
          "clipped": true,
          "clipXOffset": 0,
          "clipYOffset": 0,
          "clipWidthFactor": 1,
          "clipHeightFactor": 1
        },
        "layer1": {
          "cx": 2933.934326171875,
          "cy": 801.3394165039062,
          "width": 320,
          "height": 180,
          "opacity": 1,
          "angle": 0,
          "clipped": true,
          "clipXOffset": 0,
          "clipYOffset": 0,
          "clipWidthFactor": 1,
          "clipHeightFactor": 1
        },
        "__sozi_auto__": {
          "cx": 2933.934326171875,
          "cy": 801.3394165039062,
          "width": 320,
          "height": 180,
          "opacity": 1,
          "angle": 0,
          "clipped": true,
          "clipXOffset": 0,
          "clipYOffset": 0,
          "clipWidthFactor": 1,
          "clipHeightFactor": 1
        }
      },
      "cameraOffsets": {
        "layer1": {
          "deltaX": 0,
          "deltaY": 0,
          "widthFactor": 1,
          "heightFactor": 1,
          "deltaAngle": 0
        }
      }
    },
    {
      "frameId": "frame1022",
      "title": "frame 5",
      "titleLevel": 0,
      "notes": "",
      "timeoutMs": 0,
      "timeoutEnable": false,
      "transitionDurationMs": 1000,
      "showInFrameList": true,
      "showFrameNumber": true,
      "layerProperties": {
        "layer2": {
          "link": false,
          "referenceElementId": "",
          "outlineElementId": "rect17823",
          "transitionTimingFunction": "linear",
          "transitionRelativeZoom": 0,
          "transitionPathId": ""
        },
        "layer1": {
          "link": false,
          "referenceElementId": "rect17823",
          "outlineElementId": "rect17823",
          "transitionTimingFunction": "linear",
          "transitionRelativeZoom": 0,
          "transitionPathId": ""
        },
        "__sozi_auto__": {
          "link": false,
          "referenceElementId": "",
          "outlineElementId": "rect17823",
          "transitionTimingFunction": "linear",
          "transitionRelativeZoom": 0,
          "transitionPathId": ""
        }
      },
      "cameraStates": {
        "layer2": {
          "cx": 3392.159912109375,
          "cy": 1269.3568115234375,
          "width": 320,
          "height": 180,
          "opacity": 1,
          "angle": 0,
          "clipped": true,
          "clipXOffset": 0,
          "clipYOffset": 0,
          "clipWidthFactor": 1,
          "clipHeightFactor": 1
        },
        "layer1": {
          "cx": 3392.159912109375,
          "cy": 1269.3568115234375,
          "width": 320,
          "height": 180,
          "opacity": 1,
          "angle": 0,
          "clipped": true,
          "clipXOffset": 0,
          "clipYOffset": 0,
          "clipWidthFactor": 1,
          "clipHeightFactor": 1
        },
        "__sozi_auto__": {
          "cx": 3392.159912109375,
          "cy": 1269.3568115234375,
          "width": 320,
          "height": 180,
          "opacity": 1,
          "angle": 0,
          "clipped": true,
          "clipXOffset": 0,
          "clipYOffset": 0,
          "clipWidthFactor": 1,
          "clipHeightFactor": 1
        }
      },
      "cameraOffsets": {
        "layer1": {
          "deltaX": 0,
          "deltaY": 0,
          "widthFactor": 1,
          "heightFactor": 1,
          "deltaAngle": 0
        }
      }
    },
    {
      "frameId": "frame5188",
      "title": "frame 6",
      "titleLevel": 0,
      "notes": "",
      "timeoutMs": 0,
      "timeoutEnable": false,
      "transitionDurationMs": 1000,
      "showInFrameList": true,
      "showFrameNumber": true,
      "layerProperties": {
        "layer2": {
          "link": false,
          "referenceElementId": "",
          "outlineElementId": "rect17901",
          "transitionTimingFunction": "linear",
          "transitionRelativeZoom": 0,
          "transitionPathId": ""
        },
        "layer1": {
          "link": false,
          "referenceElementId": "rect17901",
          "outlineElementId": "rect17901",
          "transitionTimingFunction": "linear",
          "transitionRelativeZoom": 0,
          "transitionPathId": ""
        },
        "__sozi_auto__": {
          "link": false,
          "referenceElementId": "",
          "outlineElementId": "rect17901",
          "transitionTimingFunction": "linear",
          "transitionRelativeZoom": 0,
          "transitionPathId": ""
        }
      },
      "cameraStates": {
        "layer2": {
          "cx": 2696.237548828125,
          "cy": 1628.2408447265625,
          "width": 320,
          "height": 180,
          "opacity": 1,
          "angle": 0,
          "clipped": true,
          "clipXOffset": 0,
          "clipYOffset": 0,
          "clipWidthFactor": 1,
          "clipHeightFactor": 1
        },
        "layer1": {
          "cx": 2696.237548828125,
          "cy": 1628.2408447265625,
          "width": 320,
          "height": 180,
          "opacity": 1,
          "angle": 0,
          "clipped": true,
          "clipXOffset": 0,
          "clipYOffset": 0,
          "clipWidthFactor": 1,
          "clipHeightFactor": 1
        },
        "__sozi_auto__": {
          "cx": 2696.237548828125,
          "cy": 1628.2408447265625,
          "width": 320,
          "height": 180,
          "opacity": 1,
          "angle": 0,
          "clipped": true,
          "clipXOffset": 0,
          "clipYOffset": 0,
          "clipWidthFactor": 1,
          "clipHeightFactor": 1
        }
      },
      "cameraOffsets": {
        "layer1": {
          "deltaX": 0,
          "deltaY": 0,
          "widthFactor": 1,
          "heightFactor": 1,
          "deltaAngle": 0
        }
      }
    },
    {
      "frameId": "frame8314",
      "title": "frame 7",
      "titleLevel": 0,
      "notes": "",
      "timeoutMs": 0,
      "timeoutEnable": false,
      "transitionDurationMs": 1000,
      "showInFrameList": true,
      "showFrameNumber": true,
      "layerProperties": {
        "layer2": {
          "link": false,
          "referenceElementId": "",
          "outlineElementId": "rect18025",
          "transitionTimingFunction": "linear",
          "transitionRelativeZoom": 0,
          "transitionPathId": ""
        },
        "layer1": {
          "link": false,
          "referenceElementId": "rect18025",
          "outlineElementId": "rect18025",
          "transitionTimingFunction": "linear",
          "transitionRelativeZoom": 0,
          "transitionPathId": ""
        },
        "__sozi_auto__": {
          "link": false,
          "referenceElementId": "",
          "outlineElementId": "rect18025",
          "transitionTimingFunction": "linear",
          "transitionRelativeZoom": 0,
          "transitionPathId": ""
        }
      },
      "cameraStates": {
        "layer2": {
          "cx": 3493.584228515625,
          "cy": 1867.9970703125,
          "width": 320,
          "height": 180,
          "opacity": 1,
          "angle": 0,
          "clipped": true,
          "clipXOffset": 0,
          "clipYOffset": 0,
          "clipWidthFactor": 1,
          "clipHeightFactor": 1
        },
        "layer1": {
          "cx": 3493.584228515625,
          "cy": 1867.9970703125,
          "width": 320,
          "height": 180,
          "opacity": 1,
          "angle": 0,
          "clipped": true,
          "clipXOffset": 0,
          "clipYOffset": 0,
          "clipWidthFactor": 1,
          "clipHeightFactor": 1
        },
        "__sozi_auto__": {
          "cx": 3493.584228515625,
          "cy": 1867.9970703125,
          "width": 320,
          "height": 180,
          "opacity": 1,
          "angle": 0,
          "clipped": true,
          "clipXOffset": 0,
          "clipYOffset": 0,
          "clipWidthFactor": 1,
          "clipHeightFactor": 1
        }
      },
      "cameraOffsets": {
        "layer1": {
          "deltaX": 0,
          "deltaY": 0,
          "widthFactor": 1,
          "heightFactor": 1,
          "deltaAngle": 0
        }
      }
    },
    {
      "frameId": "frame7822",
      "title": "frame 8",
      "titleLevel": 0,
      "notes": "",
      "timeoutMs": 0,
      "timeoutEnable": false,
      "transitionDurationMs": 1000,
      "showInFrameList": true,
      "showFrameNumber": true,
      "layerProperties": {
        "layer2": {
          "link": false,
          "referenceElementId": "",
          "outlineElementId": "rect19139",
          "transitionTimingFunction": "linear",
          "transitionRelativeZoom": 0,
          "transitionPathId": ""
        },
        "layer1": {
          "link": false,
          "referenceElementId": "rect19139",
          "outlineElementId": "rect19139",
          "transitionTimingFunction": "linear",
          "transitionRelativeZoom": 0,
          "transitionPathId": ""
        },
        "__sozi_auto__": {
          "link": false,
          "referenceElementId": "",
          "outlineElementId": "rect19139",
          "transitionTimingFunction": "linear",
          "transitionRelativeZoom": 0,
          "transitionPathId": ""
        }
      },
      "cameraStates": {
        "layer2": {
          "cx": 2953.971923828125,
          "cy": 2162.105224609375,
          "width": 320,
          "height": 180,
          "opacity": 1,
          "angle": 0,
          "clipped": true,
          "clipXOffset": 0,
          "clipYOffset": 0,
          "clipWidthFactor": 1,
          "clipHeightFactor": 1
        },
        "layer1": {
          "cx": 2953.971923828125,
          "cy": 2162.105224609375,
          "width": 320,
          "height": 180,
          "opacity": 1,
          "angle": 0,
          "clipped": true,
          "clipXOffset": 0,
          "clipYOffset": 0,
          "clipWidthFactor": 1,
          "clipHeightFactor": 1
        },
        "__sozi_auto__": {
          "cx": 2953.971923828125,
          "cy": 2162.105224609375,
          "width": 320,
          "height": 180,
          "opacity": 1,
          "angle": 0,
          "clipped": true,
          "clipXOffset": 0,
          "clipYOffset": 0,
          "clipWidthFactor": 1,
          "clipHeightFactor": 1
        }
      },
      "cameraOffsets": {
        "layer1": {
          "deltaX": 0,
          "deltaY": 0,
          "widthFactor": 1,
          "heightFactor": 1,
          "deltaAngle": 0
        }
      }
    },
    {
      "frameId": "frame3691",
      "title": "frame 9",
      "titleLevel": 0,
      "notes": "",
      "timeoutMs": 0,
      "timeoutEnable": false,
      "transitionDurationMs": 1000,
      "showInFrameList": true,
      "showFrameNumber": true,
      "layerProperties": {
        "layer2": {
          "link": false,
          "referenceElementId": "",
          "outlineElementId": "rect20237",
          "transitionTimingFunction": "linear",
          "transitionRelativeZoom": 0,
          "transitionPathId": ""
        },
        "layer1": {
          "link": false,
          "referenceElementId": "rect20237",
          "outlineElementId": "rect20237",
          "transitionTimingFunction": "linear",
          "transitionRelativeZoom": 0,
          "transitionPathId": ""
        },
        "__sozi_auto__": {
          "link": false,
          "referenceElementId": "",
          "outlineElementId": "rect20237",
          "transitionTimingFunction": "linear",
          "transitionRelativeZoom": 0,
          "transitionPathId": ""
        }
      },
      "cameraStates": {
        "layer2": {
          "cx": 2377.87646484375,
          "cy": 2201.789306640625,
          "width": 320,
          "height": 180,
          "opacity": 1,
          "angle": 0,
          "clipped": true,
          "clipXOffset": 0,
          "clipYOffset": 0,
          "clipWidthFactor": 1,
          "clipHeightFactor": 1
        },
        "layer1": {
          "cx": 2377.87646484375,
          "cy": 2201.789306640625,
          "width": 320,
          "height": 180,
          "opacity": 1,
          "angle": 0,
          "clipped": true,
          "clipXOffset": 0,
          "clipYOffset": 0,
          "clipWidthFactor": 1,
          "clipHeightFactor": 1
        },
        "__sozi_auto__": {
          "cx": 2377.87646484375,
          "cy": 2201.789306640625,
          "width": 320,
          "height": 180,
          "opacity": 1,
          "angle": 0,
          "clipped": true,
          "clipXOffset": 0,
          "clipYOffset": 0,
          "clipWidthFactor": 1,
          "clipHeightFactor": 1
        }
      },
      "cameraOffsets": {
        "layer1": {
          "deltaX": 0,
          "deltaY": 0,
          "widthFactor": 1,
          "heightFactor": 1,
          "deltaAngle": 0
        }
      }
    },
    {
      "frameId": "frame1285",
      "title": "frame 10",
      "titleLevel": 0,
      "notes": "",
      "timeoutMs": 0,
      "timeoutEnable": false,
      "transitionDurationMs": 1000,
      "showInFrameList": true,
      "showFrameNumber": true,
      "layerProperties": {
        "layer2": {
          "link": false,
          "referenceElementId": "",
          "outlineElementId": "rect21329",
          "transitionTimingFunction": "linear",
          "transitionRelativeZoom": 0,
          "transitionPathId": ""
        },
        "layer1": {
          "link": false,
          "referenceElementId": "rect21329",
          "outlineElementId": "rect21329",
          "transitionTimingFunction": "linear",
          "transitionRelativeZoom": 0,
          "transitionPathId": ""
        },
        "__sozi_auto__": {
          "link": false,
          "referenceElementId": "",
          "outlineElementId": "rect21329",
          "transitionTimingFunction": "linear",
          "transitionRelativeZoom": 0,
          "transitionPathId": ""
        }
      },
      "cameraStates": {
        "layer2": {
          "cx": 2377.87646484375,
          "cy": 2558.93017578125,
          "width": 320,
          "height": 180,
          "opacity": 1,
          "angle": 0,
          "clipped": true,
          "clipXOffset": 0,
          "clipYOffset": 0,
          "clipWidthFactor": 1,
          "clipHeightFactor": 1
        },
        "layer1": {
          "cx": 2377.87646484375,
          "cy": 2558.93017578125,
          "width": 320,
          "height": 180,
          "opacity": 1,
          "angle": 0,
          "clipped": true,
          "clipXOffset": 0,
          "clipYOffset": 0,
          "clipWidthFactor": 1,
          "clipHeightFactor": 1
        },
        "__sozi_auto__": {
          "cx": 2377.87646484375,
          "cy": 2558.93017578125,
          "width": 320,
          "height": 180,
          "opacity": 1,
          "angle": 0,
          "clipped": true,
          "clipXOffset": 0,
          "clipYOffset": 0,
          "clipWidthFactor": 1,
          "clipHeightFactor": 1
        }
      },
      "cameraOffsets": {
        "layer1": {
          "deltaX": 0,
          "deltaY": 0,
          "widthFactor": 1,
          "heightFactor": 1,
          "deltaAngle": 0
        }
      }
    },
    {
      "frameId": "frame7082",
      "title": "frame 11",
      "titleLevel": 0,
      "notes": "",
      "timeoutMs": 0,
      "timeoutEnable": false,
      "transitionDurationMs": 1000,
      "showInFrameList": true,
      "showFrameNumber": true,
      "layerProperties": {
        "layer2": {
          "link": false,
          "referenceElementId": "",
          "outlineElementId": "rect22421",
          "transitionTimingFunction": "linear",
          "transitionRelativeZoom": 0,
          "transitionPathId": ""
        },
        "layer1": {
          "link": false,
          "referenceElementId": "rect22421",
          "outlineElementId": "rect22421",
          "transitionTimingFunction": "linear",
          "transitionRelativeZoom": 0,
          "transitionPathId": ""
        },
        "__sozi_auto__": {
          "link": false,
          "referenceElementId": "",
          "outlineElementId": "rect22421",
          "transitionTimingFunction": "linear",
          "transitionRelativeZoom": 0,
          "transitionPathId": ""
        }
      },
      "cameraStates": {
        "layer2": {
          "cx": 2026.3123779296875,
          "cy": 2813.6630859375,
          "width": 320,
          "height": 180,
          "opacity": 1,
          "angle": 0,
          "clipped": true,
          "clipXOffset": 0,
          "clipYOffset": 0,
          "clipWidthFactor": 1,
          "clipHeightFactor": 1
        },
        "layer1": {
          "cx": 2026.3123779296875,
          "cy": 2813.6630859375,
          "width": 320,
          "height": 180,
          "opacity": 1,
          "angle": 0,
          "clipped": true,
          "clipXOffset": 0,
          "clipYOffset": 0,
          "clipWidthFactor": 1,
          "clipHeightFactor": 1
        },
        "__sozi_auto__": {
          "cx": 2026.3123779296875,
          "cy": 2813.6630859375,
          "width": 320,
          "height": 180,
          "opacity": 1,
          "angle": 0,
          "clipped": true,
          "clipXOffset": 0,
          "clipYOffset": 0,
          "clipWidthFactor": 1,
          "clipHeightFactor": 1
        }
      },
      "cameraOffsets": {
        "layer1": {
          "deltaX": 0,
          "deltaY": 0,
          "widthFactor": 1,
          "heightFactor": 1,
          "deltaAngle": 0
        }
      }
    },
    {
      "frameId": "frame8927",
      "title": "frame 12",
      "titleLevel": 0,
      "notes": "",
      "timeoutMs": 0,
      "timeoutEnable": false,
      "transitionDurationMs": 1000,
      "showInFrameList": true,
      "showFrameNumber": true,
      "layerProperties": {
        "layer2": {
          "link": false,
          "referenceElementId": "",
          "outlineElementId": "rect23513-9",
          "transitionTimingFunction": "linear",
          "transitionRelativeZoom": 0,
          "transitionPathId": ""
        },
        "layer1": {
          "link": false,
          "referenceElementId": "rect23513-9",
          "outlineElementId": "rect23513-9",
          "transitionTimingFunction": "linear",
          "transitionRelativeZoom": 0,
          "transitionPathId": ""
        },
        "__sozi_auto__": {
          "link": false,
          "referenceElementId": "",
          "outlineElementId": "rect23513-9",
          "transitionTimingFunction": "linear",
          "transitionRelativeZoom": 0,
          "transitionPathId": ""
        }
      },
      "cameraStates": {
        "layer2": {
          "cx": 1719.0623779296875,
          "cy": 2041.0567626953125,
          "width": 320,
          "height": 180,
          "opacity": 1,
          "angle": 0,
          "clipped": true,
          "clipXOffset": 0,
          "clipYOffset": 0,
          "clipWidthFactor": 1,
          "clipHeightFactor": 1
        },
        "layer1": {
          "cx": 1719.0623779296875,
          "cy": 2041.0567626953125,
          "width": 320,
          "height": 180,
          "opacity": 1,
          "angle": 0,
          "clipped": true,
          "clipXOffset": 0,
          "clipYOffset": 0,
          "clipWidthFactor": 1,
          "clipHeightFactor": 1
        },
        "__sozi_auto__": {
          "cx": 1719.0623779296875,
          "cy": 2041.0567626953125,
          "width": 320,
          "height": 180,
          "opacity": 1,
          "angle": 0,
          "clipped": true,
          "clipXOffset": 0,
          "clipYOffset": 0,
          "clipWidthFactor": 1,
          "clipHeightFactor": 1
        }
      },
      "cameraOffsets": {
        "layer1": {
          "deltaX": 0,
          "deltaY": 0,
          "widthFactor": 1,
          "heightFactor": 1,
          "deltaAngle": 0
        }
      }
    },
    {
      "frameId": "frame2109",
      "title": "frame 13",
      "titleLevel": 0,
      "notes": "",
      "timeoutMs": 0,
      "timeoutEnable": false,
      "transitionDurationMs": 1000,
      "showInFrameList": true,
      "showFrameNumber": true,
      "layerProperties": {
        "layer2": {
          "link": false,
          "referenceElementId": "",
          "outlineElementId": "rect23577",
          "transitionTimingFunction": "linear",
          "transitionRelativeZoom": 0,
          "transitionPathId": ""
        },
        "layer1": {
          "link": false,
          "referenceElementId": "rect23577",
          "outlineElementId": "rect23577",
          "transitionTimingFunction": "linear",
          "transitionRelativeZoom": 0,
          "transitionPathId": ""
        },
        "__sozi_auto__": {
          "link": false,
          "referenceElementId": "",
          "outlineElementId": "rect23577",
          "transitionTimingFunction": "linear",
          "transitionRelativeZoom": 0,
          "transitionPathId": ""
        }
      },
      "cameraStates": {
        "layer2": {
          "cx": 1719.0623779296875,
          "cy": 3063.491943359375,
          "width": 320,
          "height": 180,
          "opacity": 1,
          "angle": 0,
          "clipped": true,
          "clipXOffset": 0,
          "clipYOffset": 0,
          "clipWidthFactor": 1,
          "clipHeightFactor": 1
        },
        "layer1": {
          "cx": 1719.0623779296875,
          "cy": 3063.491943359375,
          "width": 320,
          "height": 180,
          "opacity": 1,
          "angle": 0,
          "clipped": true,
          "clipXOffset": 0,
          "clipYOffset": 0,
          "clipWidthFactor": 1,
          "clipHeightFactor": 1
        },
        "__sozi_auto__": {
          "cx": 1719.0623779296875,
          "cy": 3063.491943359375,
          "width": 320,
          "height": 180,
          "opacity": 1,
          "angle": 0,
          "clipped": true,
          "clipXOffset": 0,
          "clipYOffset": 0,
          "clipWidthFactor": 1,
          "clipHeightFactor": 1
        }
      },
      "cameraOffsets": {
        "layer1": {
          "deltaX": 0,
          "deltaY": 0,
          "widthFactor": 1,
          "heightFactor": 1,
          "deltaAngle": 0
        }
      }
    },
    {
      "frameId": "frame7491",
      "title": "frame 14",
      "titleLevel": 0,
      "notes": "",
      "timeoutMs": 0,
      "timeoutEnable": false,
      "transitionDurationMs": 1000,
      "showInFrameList": true,
      "showFrameNumber": true,
      "layerProperties": {
        "layer2": {
          "link": false,
          "referenceElementId": "",
          "outlineElementId": "rect23613",
          "transitionTimingFunction": "linear",
          "transitionRelativeZoom": 0,
          "transitionPathId": ""
        },
        "layer1": {
          "link": false,
          "referenceElementId": "rect23613",
          "outlineElementId": "rect23613",
          "transitionTimingFunction": "linear",
          "transitionRelativeZoom": 0,
          "transitionPathId": ""
        },
        "__sozi_auto__": {
          "link": false,
          "referenceElementId": "",
          "outlineElementId": "rect23613",
          "transitionTimingFunction": "linear",
          "transitionRelativeZoom": 0,
          "transitionPathId": ""
        }
      },
      "cameraStates": {
        "layer2": {
          "cx": 2953.93603515625,
          "cy": 2596.286376953125,
          "width": 320,
          "height": 180,
          "opacity": 1,
          "angle": 0,
          "clipped": true,
          "clipXOffset": 0,
          "clipYOffset": 0,
          "clipWidthFactor": 1,
          "clipHeightFactor": 1
        },
        "layer1": {
          "cx": 2953.93603515625,
          "cy": 2596.286376953125,
          "width": 320,
          "height": 180,
          "opacity": 1,
          "angle": 0,
          "clipped": true,
          "clipXOffset": 0,
          "clipYOffset": 0,
          "clipWidthFactor": 1,
          "clipHeightFactor": 1
        },
        "__sozi_auto__": {
          "cx": 2953.93603515625,
          "cy": 2596.286376953125,
          "width": 320,
          "height": 180,
          "opacity": 1,
          "angle": 0,
          "clipped": true,
          "clipXOffset": 0,
          "clipYOffset": 0,
          "clipWidthFactor": 1,
          "clipHeightFactor": 1
        }
      },
      "cameraOffsets": {
        "layer1": {
          "deltaX": 0,
          "deltaY": 0,
          "widthFactor": 1,
          "heightFactor": 1,
          "deltaAngle": 0
        }
      }
    },
    {
      "frameId": "frame2858",
      "title": "frame 15",
      "titleLevel": 0,
      "notes": "",
      "timeoutMs": 0,
      "timeoutEnable": false,
      "transitionDurationMs": 1000,
      "showInFrameList": true,
      "showFrameNumber": true,
      "layerProperties": {
        "layer2": {
          "link": false,
          "referenceElementId": "",
          "outlineElementId": "rect23547",
          "transitionTimingFunction": "linear",
          "transitionRelativeZoom": 0,
          "transitionPathId": ""
        },
        "layer1": {
          "link": false,
          "referenceElementId": "rect23547",
          "outlineElementId": "rect23547",
          "transitionTimingFunction": "linear",
          "transitionRelativeZoom": 0,
          "transitionPathId": ""
        },
        "__sozi_auto__": {
          "link": false,
          "referenceElementId": "",
          "outlineElementId": "rect23547",
          "transitionTimingFunction": "linear",
          "transitionRelativeZoom": 0,
          "transitionPathId": ""
        }
      },
      "cameraStates": {
        "layer2": {
          "cx": 3258.644287109375,
          "cy": 3047.067626953125,
          "width": 320,
          "height": 180,
          "opacity": 1,
          "angle": 0,
          "clipped": true,
          "clipXOffset": 0,
          "clipYOffset": 0,
          "clipWidthFactor": 1,
          "clipHeightFactor": 1
        },
        "layer1": {
          "cx": 3258.644287109375,
          "cy": 3047.067626953125,
          "width": 320,
          "height": 180,
          "opacity": 1,
          "angle": 0,
          "clipped": true,
          "clipXOffset": 0,
          "clipYOffset": 0,
          "clipWidthFactor": 1,
          "clipHeightFactor": 1
        },
        "__sozi_auto__": {
          "cx": 3258.644287109375,
          "cy": 3047.067626953125,
          "width": 320,
          "height": 180,
          "opacity": 1,
          "angle": 0,
          "clipped": true,
          "clipXOffset": 0,
          "clipYOffset": 0,
          "clipWidthFactor": 1,
          "clipHeightFactor": 1
        }
      },
      "cameraOffsets": {
        "layer1": {
          "deltaX": 0,
          "deltaY": 0,
          "widthFactor": 1,
          "heightFactor": 1,
          "deltaAngle": 0
        }
      }
    },
    {
      "frameId": "frame9998",
      "title": "Winde frame 16",
      "titleLevel": 0,
      "notes": "",
      "timeoutMs": 0,
      "timeoutEnable": false,
      "transitionDurationMs": 1000,
      "showInFrameList": true,
      "showFrameNumber": true,
      "layerProperties": {
        "layer2": {
          "link": false,
          "referenceElementId": "",
          "outlineElementId": "path10831",
          "transitionTimingFunction": "linear",
          "transitionRelativeZoom": 0,
          "transitionPathId": ""
        },
        "layer1": {
          "link": false,
          "referenceElementId": "path10831",
          "outlineElementId": "path10831",
          "transitionTimingFunction": "linear",
          "transitionRelativeZoom": 0,
          "transitionPathId": ""
        },
        "__sozi_auto__": {
          "link": false,
          "referenceElementId": "",
          "outlineElementId": "path10831",
          "transitionTimingFunction": "linear",
          "transitionRelativeZoom": 0,
          "transitionPathId": ""
        }
      },
      "cameraStates": {
        "layer2": {
          "cx": 2747.333251953125,
          "cy": 1650.000244140625,
          "width": 5854.540541434806,
          "height": 3299.9999065572338,
          "opacity": 1,
          "angle": 0,
          "clipped": true,
          "clipXOffset": 0,
          "clipYOffset": 0,
          "clipWidthFactor": 1,
          "clipHeightFactor": 1
        },
        "layer1": {
          "cx": 2747.333251953125,
          "cy": 1650.000244140625,
          "width": 5854.540541434806,
          "height": 3299.9999065572338,
          "opacity": 1,
          "angle": 0,
          "clipped": true,
          "clipXOffset": 0,
          "clipYOffset": 0,
          "clipWidthFactor": 1,
          "clipHeightFactor": 1
        },
        "__sozi_auto__": {
          "cx": 2747.333251953125,
          "cy": 1650.000244140625,
          "width": 5854.540541434806,
          "height": 3299.9999065572338,
          "opacity": 1,
          "angle": 0,
          "clipped": true,
          "clipXOffset": 0,
          "clipYOffset": 0,
          "clipWidthFactor": 1,
          "clipHeightFactor": 1
        }
      },
      "cameraOffsets": {
        "layer1": {
          "deltaX": 0,
          "deltaY": 0,
          "widthFactor": 1,
          "heightFactor": 1,
          "deltaAngle": 0
        }
      }
    }
  ],
  "elementsToHide": [],
  "selectedFrames": [
    "frame9998"
  ],
  "selectedLayers": [
    "layer2",
    "layer1",
    "__sozi_auto__"
  ],
  "editableLayers": []
}